{
    "swagger": "2.0",
    "info": {
      "description": "API for amsler eye test",
      "version": "1.0.0",
      "title": "API for amsler eye test",
      "license": {
        "name": "MIT",
        "url": "https://opensource.org/licenses/MIT"
      }
    },
    "host": "virtserver.swaggerhub.com",
    "basePath": "/kmahalingpur/Insert_test_data/1.0.0",
    "tags": [
      {
        "name": "Amsler",
        "description": "API's for amsler test data"
      }
    ],
    "schemes": [
      "https",
      "http"
    ],
    "consumes": [
      "application/json"
    ],
    "produces": [
      "application/json"
    ],
    "paths": {
      "/swaggerapi": {
        "post": {
          "tags": [
            "Eye test"
          ],
          "description": "Create new eye test",
          "produces": [
            "application/json"
          ],
          "parameters": [
            {
              "in": "body",
              "name": "Test data",
              "description": "Test data that we need to create",
              "required": false,
              "schema": {
                "$ref": "#/definitions/EyeTest"
              }
            }
          ],
          "responses": {
            "200": {
              "description": "A JSON object",
              "schema": {
                "$ref": "#/definitions/inline_response_200"
              }
            }
          }
        }
      }
  
    },
    "definitions": {
      "EyeTest": {
        "properties": {
          "name": {
            "type": "string"
          },
          "password": {
            "type": "string"
          },
         
       
        
          "amslerLeftEye": {
            "$ref": "#/definitions/EyeTest_amslerLeftEye"
          },
          "amslerRightEye": {
            "$ref": "#/definitions/EyeTest_amslerLeftEye"
          },
          "leftdrawingpoints": {
            "type": "array",
            "items": {
              "$ref": "#/definitions/EyeTest_leftdrawingpoints"
            }
          }
        },
        "example": {
          "name": "name",
          "password": "password",
          "location": "abc-location",
          "leftvision": "LogMR20/140",
          "leftplatemissed": 9,
          "rightvision": "LogMR20/140",
          "leftdrawingpoints": [
            {
              "x": 40,
              "y": 29
            },
            {
              "x": 57,
              "y": 10
            }
          ],
          "amslerLeftEye": {
            "m_heavyGray": 1,
            "m_double": 2,
            "m_blue": 0,
            "m_black": 3,
            "m_mediumGray": 1,
            "m_crooked": 8,
            "m_lightGray": 7,
            "m_uncertain": 0
          },
          "amslerRightEye": {
            "m_heavyGray": 1,
            "m_double": 2,
            "m_blue": 0,
            "m_black": 3,
            "m_mediumGray": 1,
            "m_crooked": 8,
            "m_lightGray": 7,
            "m_uncertain": 0
          },
          "rightplatemissed": 3,
          "rightplate": 8,
          "leftplate": 2
        }
      },
      "inline_response_200": {
        "properties": {
          "result": {
            "type": "string",
            "example": "Test data added/updated successfully or Test data not added/updated"
          },
          "error": {
            "type": "boolean",
            "example": false
          }
        },
        "example": {
          "result": "Test data added/updated successfully or Test data not added/updated",
          "error": false
        }
      },
      "userData": {
        "properties": {
          "Username": {
            "type": "string"
          },
          "Password": {
            "type": "string"
          },
          "EmailId": {
            "type": "string"
          }
        },
        "example": {
          "Username": "username",
          "EmailId": "email@mail.com",
          "Password": "password"
        }
      },
      "inline_response_200_user": {
        "properties": {
          "result": {
            "type": "string",
            "example": "User added/updated successfully or User not added/updated"
          },
          "error": {
            "type": "boolean",
            "example": false
          }
        },
        "example": {
          "result": "User added/updated successfully or User not added/updated",
          "error": false
        }
      },
      "EyeTest_amslerLeftEye": {
        "properties": {
          "m_blue": {
            "type": "number"
          },
          "m_lightGray": {
            "type": "number"
          },
          "m_mediumGray": {
            "type": "number"
          },
          "m_heavyGray": {
            "type": "number"
          },
          "m_black": {
            "type": "number"
          },
          "m_crooked": {
            "type": "number"
          },
          "m_double": {
            "type": "number"
          },
          "m_uncertain": {
            "type": "number"
          }
        },
        "example": {
          "m_heavyGray": 1,
          "m_double": 2,
          "m_blue": 0,
          "m_black": 3,
          "m_mediumGray": 1,
          "m_crooked": 8,
          "m_lightGray": 7,
          "m_uncertain": 0
        }
      },
      "EyeTest_leftdrawingpoints": {
        "properties": {
          "x": {
            "type": "integer"
          },
          "y": {
            "type": "integer"
          }
        },
        "example": {
          "x": 40,
          "y": 29
        }
      }
    }
  }

  