AirWaybill_No,Order_No,Product_Type,Weight,Vol_Weight,COD_Amount,Origin_Pincode,Origin_SC,Origin_City,Destination_Pincode,Destination_SC,Destination_City,Zone,Vendor,Consignee,Softdata_Upload,Expected_Date,Status,Remarks,Current_Reason,Summary_Status,Reason,Last_Reason,Delivery_date,Received_by,Lastupdated_date,Return_status,First_outscan,Last_outscan,No_of_attempts,Company_name,customer_name,mobile,address
921196101,239300,cod,0.5,0,1799,641021,COIMBATORE - CJT,SALEM,560072,PODILI - PIL,PODILI,IntraRegion-ROS,RATHIRA AYURVEDA PRIVATE LIMITED,Sreenu merikapudi,10/11/18,2 Jul 18,Delivered / Closed,  ,Delivered,Delivered,,,30/06/18 11:31,Self:Sreenu merikapudi: Android,30/06/18 11:31,,29/06/18 09:13,30/06/18 09:18,2,FK,demo,demo,"293, Bekkarle complex, 6th Main Rd, 11th Block, Marilingappa Extension, Nagarbhavi, Bengaluru, Karnataka 560072"
921196071,239287,cod,0.5,0,1799,641021,COIMBATORE - CJT,SALEM,560072,PODILI - PIL,PODILI,IntraRegion-ROS,RATHIRA AYURVEDA PRIVATE LIMITED,Sreenu merikapudi,10/11/18,2 Jul 18,Delivered / Closed,  ,Delivered,Delivered,,,30/06/18 11:31,Self:Sreenu merikapudi: Android,30/06/18 11:31,,29/06/18 09:13,30/06/18 09:18,2,FK,demo,demo,"1st Main Road 702 II nd MAIN II nd STAGE, 11th Block, Marilingappa Extension, Nagarbhavi, Bengaluru, Karnataka 560072"
921196072,239531,cod,0.5,0,1799,641021,COIMBATORE - CJT,SALEM,560072,PODILI - PIL,PODILI,IntraRegion-ROS,RATHIRA AYURVEDA PRIVATE LIMITED,Manikumar,10/11/18,30 Jun 18,Returned,  ,RTS - Return To Shipper,Undelivered,NULL,No Such Consignee At Given Address,,,06/07/18 10:31,Delivered / Closed,29/06/18 09:45,03/07/18 17:03,5,FK,demo,demo,"10 Block, 2nd Stage, Nagarbhavi, Bengaluru, Karnataka 560072"
921196073,239388,cod,0.5,0,1799,641021,COIMBATORE - CJT,SALEM,560072,BHADRAVATI - BDT,BHADRAVATI,IntraRegion-ROS,RATHIRA AYURVEDA PRIVATE LIMITED,Ummadigalla Sandhya,10/11/18,30 Jun 18,Returned,  ,RTS - Return To Shipper,Returned,NULL,Order already cancelled,,,06/07/18 10:13,Delivered / Closed,29/06/18 08:10,05/07/18 11:02,3,FK,demo,demo,"10 Block, 2nd Stage, Nagarbhavi, Bengaluru, Karnataka 560072"
921196074,239035,cod,0.5,0,999,641021,COIMBATORE - CJT,SALEM,560072,GOKAVARAM - GVM,GOKAVARAM,IntraRegion-ROS,RATHIRA AYURVEDA PRIVATE LIMITED,Mohan,10/11/18,2 Jul 18,Delivered / Closed,  ,Delivered,Delivered,,,30/06/18 15:18,Self:Mohan: Android,30/06/18 15:18,,30/06/18 12:16,30/06/18 12:16,1,FK,demo,demo,"Malagala, 2nd Stage, Nagarbhavi, Bengaluru, Karnataka 560072"
921196075,239166,cod,0.5,0,1799,641021,COIMBATORE - CJT,SALEM,560073,BHADRAVATI - BDT,BHADRAVATI,IntraRegion-ROS,RATHIRA AYURVEDA PRIVATE LIMITED,Deepak p,10/11/18,29 Jun 18,Returned,  ,RTS - Return To Shipper,Undelivered,NULL,,,,10/07/18 09:51,Delivered / Closed,28/06/18 10:06,28/06/18 10:06,1,FK,demo,demo,"Visveshwaraiah Layout, Manjunatha Nagar, Bagalakunte, Bengaluru, Karnataka 560073"
