AirWaybill_No,Order_No,Product_Type,Weight,Vol_Weight,COD_Amount,Origin_Pincode,Origin_SC,Origin_City,Destination_Pincode,Destination_SC,Destination_City,Zone,Vendor,Consignee,Softdata_Upload,Expected_Date,Status,Remarks,Current_Reason,Summary_Status,Reason,Last_Reason,Delivery_date,Received_by,Lastupdated_date,Return_status,First_outscan,Last_outscan,No_of_attempts,Company_name,customer_name,mobile,address
921196101,239300,cod,0.5,0,1799,641021,COIMBATORE - CJT,SALEM,560072,NAGARABHAVI,NAGARABHAVI,IntraRegion-ROS,RATHIRA AYURVEDA PRIVATE LIMITED,Sreenu merikapudi,10/12/18,2 Jul 18,Delivered / Closed,  ,Delivered,Delivered,,,30/06/18 11:31,Self:Sreenu merikapudi: Android,30/06/18 11:31,,29/06/18 09:13,30/06/18 09:18,2,FK,demo,demo,"293, Bekkarle complex, 6th Main Rd, 11th Block, Marilingappa Extension, Nagarbhavi, Bengaluru, Karnataka 560072"
921196071,239287,cod,0.5,0,1799,641021,COIMBATORE - CJT,SALEM,560072,NAGARABHAVI,NAGARABHAVI,IntraRegion-ROS,RATHIRA AYURVEDA PRIVATE LIMITED,Sreenu merikapudi,10/12/18,2 Jul 18,Delivered / Closed,  ,Delivered,Delivered,,,30/06/18 11:31,Self:Sreenu merikapudi: Android,30/06/18 11:31,,29/06/18 09:13,30/06/18 09:18,2,FK,demo,demo,"#1st Main Road 702 II nd MAIN II nd STAGE, 11th Block, Marilingappa Extension, Nagarbhavi, Bengaluru, Karnataka 560072"
921196072,239531,cod,0.5,0,1799,641021,COIMBATORE - CJT,SALEM,560072,NAGARABHAVI,NAGARABHAVI,IntraRegion-ROS,RATHIRA AYURVEDA PRIVATE LIMITED,Manikumar,10/12/18,30 Jun 18,Returned,  ,RTS - Return To Shipper,Undelivered,NULL,No Such Consignee At Given Address,,,06/07/18 10:31,Delivered / Closed,29/06/18 09:45,03/07/18 17:03,5,FK,demo,demo,"#10 Block, 2nd Stage, Nagarbhavi, Bengaluru, Karnataka 560072"
921196074,239035,cod,0.5,0,999,641021,COIMBATORE - CJT,SALEM,560072,NAGARABHAVI,NAGARABHAVI,IntraRegion-ROS,RATHIRA AYURVEDA PRIVATE LIMITED,Mohan,10/12/18,2 Jul 18,Delivered / Closed,  ,Delivered,Delivered,,,30/06/18 15:18,Self:Mohan: Android,30/06/18 15:18,,30/06/18 12:16,30/06/18 12:16,1,FK,demo,demo,"Malagala, 2nd Stage, Nagarbhavi, Bengaluru, Karnataka 560072"
921196075,239166,cod,0.5,0,1799,641021,COIMBATORE - CJT,SALEM,560073,NAGASANDHRA,NAGASANDHRA,IntraRegion-ROS,RATHIRA AYURVEDA PRIVATE LIMITED,Deepak p,10/12/18,29 Jun 18,Returned,  ,RTS - Return To Shipper,Undelivered,NULL,,,,10/07/18 09:51,Delivered / Closed,28/06/18 10:06,28/06/18 10:06,1,FK,demo,demo,"Visveshwaraiah Layout, Manjunatha Nagar, Bagalakunte, Bengaluru, Karnataka 560073"
921196076,239018,cod,0.5,0,1799,641021,COIMBATORE - CJT,SALEM,560073,NAGASANDHRA,NAGASANDHRA,IntraRegion-ROS,RATHIRA AYURVEDA PRIVATE LIMITED,Rajkumar Maiti,10/12/18,30 Jun 18,Delivered / Closed,  ,Delivered,Delivered,,,29/06/18 13:13,Self:Rajkumar Maiti: Android,29/06/18 13:13,,29/06/18 10:15,29/06/18 10:15,1,FK,demo,demo,"No 516, 12th Main, MS Ramaiah Enclave,, 8th Mile,Hesarghatta Main Road,, Havanur Layout, Bagalakunte, Bengaluru, Karnataka 560073"
921196077,239271,cod,0.5,0,1799,641021,COIMBATORE - CJT,SALEM,560073,NAGASANDHRA,NAGASANDHRA,IntraRegion-ROS,RATHIRA AYURVEDA PRIVATE LIMITED,Tulasidas S Kamat,10/12/18,30 Jun 18,Returned,  ,RTS - Return To Shipper,Returned,NULL,Order already cancelled,,,06/07/18 07:40,Delivered / Closed,29/06/18 07:10,05/07/18 16:32,3,FK,demo,demo,"Rukmini Nagar, Bengaluru, Karnataka 560073"
921196078,239330,cod,0.5,0,1799,641021,COIMBATORE - CJT,SALEM,560073,NAGASANDHRA,NAGASANDHRA,IntraRegion-ROS,RATHIRA AYURVEDA PRIVATE LIMITED,Aruna Prakash,10/12/18,29 Jun 18,Delivered / Closed,  ,Delivered,Undelivered,,,28/06/18 19:45,Self:Aruna Prakash: Android,28/06/18 19:45,,28/06/18 15:07,28/06/18 15:07,1,FK,demo,demo,"No 211, 5th Cross, Mayanna Layout, Shrikantapura, Anchepalya, Bengaluru, Karnataka 560073"
921196080,239299,cod,0.5,0,1799,641021,COIMBATORE - CJT,SALEM,560071,DOMLUR,DOMLUR,IntraRegion-ROS,RATHIRA AYURVEDA PRIVATE LIMITED,Kesavulu,10/12/18,29 Jun 18,Delivered / Closed,  ,Delivered,Delivered,,,30/06/18 17:10,Self:Kesavulu: Android,30/06/18 17:10,,29/06/18 11:27,30/06/18 10:54,2,FK,demo,demo,"Maruthi Info-Tech Centre, 11, 12/1, 100 Feet Rd, Embassy Golf Links Business Park, Koramangala, Bengaluru, Karnataka 560071"
921196081,239078,cod,0.5,0,1499,641021,COIMBATORE - CJT,SALEM,560071,DOMLUR,DOMLUR,IntraRegion-ROS,RATHIRA AYURVEDA PRIVATE LIMITED,Basheer,10/12/18,29 Jun 18,Returned,  ,RTS - Return To Shipper,Undelivered,NULL,Out of Delivery Area,,,11/07/18 14:53,Delivered / Closed,29/06/18 11:48,07/07/18 11:00,2,FK,demo,demo,"Pebble Beach, Off Intermediate Ring Road, Embassy Golf Links Business Park, Challaghatta, Bengaluru, Karnataka 560071"
921196082,239409,cod,0.5,0,1799,641021,COIMBATORE - CJT,SALEM,560074,RAMOHALLI,RAMOHALLI,IntraRegion,RATHIRA AYURVEDA PRIVATE LIMITED,Jinesh sukumaran,10/12/18,29 Jun 18,Returned,  ,RTS - Return To Shipper,Returned,NULL,Order already cancelled,,,07/07/18 17:08,Delivered / Closed,28/06/18 09:15,06/07/18 11:06,3,FK,demo,demo,"Kumbalagodu-Gollahalli-Thittahalli Road, Gudimavu, Kengeri Hobli, Kumbalagodu Post, Kumbalagodu, Bengaluru, Karnataka 560074"
921196081,239078,cod,0.5,0,1499,641021,COIMBATORE - CJT,SALEM,560074,RAMOHALLI,RAMOHALLI,IntraRegion-ROS,RATHIRA AYURVEDA PRIVATE LIMITED,RATHIRA AYURVEDA PRIVATE LIMITED (10 DAYS HAIR OIL) - 621279,10/12/18,29 Jun 18,Returned,  ,RTS - Return To Shipper,Returned,NULL,Out of Delivery Area,,,11/07/18 14:53,Delivered / Closed,29/06/18 11:48,07/07/18 11:00,2,FK,demo,demo,"Mysore Rd, Kumbalagodu, Bengaluru, Karnataka 560074"
921196083,239158,cod,0.5,0,1799,641021,COIMBATORE - CJT,SALEM,560075,TIPPASANDRA,TIPPASANDRA,IntraRegion-ROS,RATHIRA AYURVEDA PRIVATE LIMITED,RATHIRA AYURVEDA PRIVATE LIMITED (10 DAYS HAIR OIL) - 621279,10/12/18,28 Jun 18,Returned,  ,RTS - Return To Shipper,Returned,NULL,Order already cancelled,,,05/07/18 15:48,Delivered / Closed,27/06/18 09:21,30/06/18 09:38,3,FK,demo,demo,"35, 1st Main Rd, HAL 3rd Stage, Puttappa layout, New Tippasandra, Bengaluru, Karnataka 560075"
921196084,239483,cod,0.5,0,1799,641021,COIMBATORE - CJT,SALEM,560075,TIPPASANDRA,TIPPASANDRA,IntraRegion,RATHIRA AYURVEDA PRIVATE LIMITED,RATHIRA AYURVEDA PRIVATE LIMITED (10 DAYS HAIR OIL) - 621279,10/12/18,28 Jun 18,Returned,  ,RTS - Return To Shipper,Returned,NULL,Order already cancelled,,,05/07/18 10:31,Delivered / Closed,28/06/18 10:10,03/07/18 10:26,3,FK,demo,demo,"52, 6th Cross, 8th Main,, Hal, HAL 3rd Stage, New Thipasandra, Bengaluru, Karnataka 560075"
921196085,239260,cod,0.5,0,1079,641021,COIMBATORE - CJT,SALEM,560075,TIPPASANDRA,TIPPASANDRA,IntraRegion,RATHIRA AYURVEDA PRIVATE LIMITED,RATHIRA AYURVEDA PRIVATE LIMITED (10 DAYS HAIR OIL) - 621279,10/12/18,28 Jun 18,Delivered / Closed,  ,Delivered,Undelivered,,COD amount not ready,02/07/18 16:24,Self:S JOHNSON: Android,02/07/18 16:24,,28/06/18 07:32,02/07/18 10:35,3,FK,demo,demo,"6th Main Rd, HAL 3rd Stage, Bhoomi Reddy Colony, New Tippasandra, Bengaluru, Karnataka 560075"
921196086,239318,cod,0.5,0,1799,641021,COIMBATORE - CJT,SALEM,560075,TIPPASANDRA,TIPPASANDRA,IntraRegion-ROS,RATHIRA AYURVEDA PRIVATE LIMITED,RATHIRA AYURVEDA PRIVATE LIMITED (10 DAYS HAIR OIL) - 621279,10/12/18,29 Jun 18,Delivered / Closed,  ,Delivered,Returned,,,28/06/18 14:03,Self:S.muthukumar: Android,28/06/18 14:03,,27/06/18 11:10,28/06/18 11:13,2,FK,demo,demo,"3rd Cross Rd, HAL 3rd Stage, Bhoomi Reddy Colony, New Tippasandra, Bengaluru, Karnataka 560075"
921196087,239344,cod,0.5,0,1799,641021,COIMBATORE - CJT,SALEM,560075,TIPPASANDRA,TIPPASANDRA,IntraRegion,RATHIRA AYURVEDA PRIVATE LIMITED,RATHIRA AYURVEDA PRIVATE LIMITED (10 DAYS HAIR OIL) - 621279,10/12/18,28 Jun 18,Returned,  ,RTS - Return To Shipper,Undelivered,NULL,Order already cancelled,,,05/07/18 17:07,Delivered / Closed,28/06/18 10:51,03/07/18 17:16,3,FK,demo,demo,"3, HAL 3rd Stage, New Tippasandra, HAL 3rd Stage, Bhoomi Reddy Colony, New Tippasandra, Bengaluru, Karnataka 560075"
921196088,239386,cod,0.5,0,1799,641021,COIMBATORE - CJT,SALEM,560075,TIPPASANDRA,TIPPASANDRA,IntraRegion-ROS,RATHIRA AYURVEDA PRIVATE LIMITED,RATHIRA AYURVEDA PRIVATE LIMITED (10 DAYS HAIR OIL) - 621279,10/12/18,29 Jun 18,Returned,  ,RTS - Return To Shipper,Returned,NULL,Consignee Refused To Accept,,,06/07/18 17:45,Delivered / Closed,29/06/18 10:48,05/07/18 08:54,3,FK,demo,demo,"6th Main Rd, HAL 3rd Stage, Bhoomi Reddy Colony, New Tippasandra, Bengaluru, Karnataka 560075"
921196089,239282,cod,0.5,0,1299,641021,COIMBATORE - CJT,SALEM,560076,AREKERE,AREKERE,IntraRegion-ROS,RATHIRA AYURVEDA PRIVATE LIMITED,RATHIRA AYURVEDA PRIVATE LIMITED (10 DAYS HAIR OIL) - 621279,10/12/18,29 Jun 18,Delivered / Closed,  ,Delivered,Undelivered,,,29/06/18 11:18,Self:Mahesh: Android,29/06/18 11:18,,29/06/18 09:28,29/06/18 09:28,1,FK,demo,demo,"Pai Layout, Hulimavu, Bengaluru, Karnataka 560076"
913625168,239426,cod,0.45,0.390580814264256,1799,421302,BHIWANDI - BWP,MUMBAI,560076,AREKERE,AREKERE,IntraRegion,ECOM FULFILLMENT CENTRE,RATHIRA AYURVEDA PRIVATE LIMITED (10 DAYS HAIR OIL) - 621279,10/12/18,29 Jun 18,Returned,  ,RTS - Return To Shipper,Returned,NULL,Order already cancelled,,,06/07/18 09:30,Delivered / Closed,28/06/18 12:36,05/07/18 11:00,3,FK,demo,demo,"Hulimavu Lake Road, Krishna Layout, Hulimavu, Bengaluru, Karnataka 560076"
913625169,239427,cod,0.45,0.390580814264256,1799,421302,BHIWANDI - BWP,MUMBAI,560076,AREKERE,AREKERE,IntraRegion-ROS,ECOM FULFILLMENT CENTRE,RATHIRA AYURVEDA PRIVATE LIMITED (10 DAYS HAIR OIL) - 621279,10/12/18,29 Jun 18,Returned,  ,RTS - Return To Shipper,Returned,NULL,Customer out of station,,,12/07/18 14:01,Delivered / Closed,30/06/18 10:42,11/07/18 16:24,3,FK,demo,demo,"947, Krishna Reddy Layout, Yellappa Reddy Layout, Venugopal Reddy Layout, Arekere, Bengaluru, Karnataka 560076"
913625170,239428,cod,0.45,0.390580814264256,1799,421302,BHIWANDI - BWP,MUMBAI,560076,AREKERE,AREKERE,IntraRegion-ROS,ECOM FULFILLMENT CENTRE,RATHIRA AYURVEDA PRIVATE LIMITED (10 DAYS HAIR OIL) - 621279,10/12/18,29 Jun 18,Returned,  ,RTS - Return To Shipper,Returned,NULL,Customer out of station,,,12/07/18 14:01,Delivered / Closed,30/06/18 10:42,11/07/18 16:24,3,FK,demo,demo,"G7/G8, BSR Arcade, 198, Gandhi Bazar, Basavanagudi, Gandhi Bazaar, Basavanagudi, Bengaluru, Karnataka 560004"
913625171,239429,cod,0.45,0.390580814264256,1799,421302,BHIWANDI - BWP,MUMBAI,560004,BASAVANAGUDI,BASAVANAGUDI,IntraRegion-ROS,ECOM FULFILLMENT CENTRE,RATHIRA AYURVEDA PRIVATE LIMITED (10 DAYS HAIR OIL) - 621279,10/12/18,29 Jun 18,Returned,  ,RTS - Return To Shipper,Returned,NULL,Customer out of station,,,12/07/18 14:01,Delivered / Closed,30/06/18 10:42,11/07/18 16:24,3,FK,demo,demo,"2, Sannidi Rd, Basavanagudi, Bengaluru, Karnataka 560004"
913625172,239430,cod,0.45,0.390580814264256,1799,421302,BHIWANDI - BWP,MUMBAI,560003,MALLESHWARAM,MALLESHWARAM,IntraRegion-ROS,ECOM FULFILLMENT CENTRE,RATHIRA AYURVEDA PRIVATE LIMITED (10 DAYS HAIR OIL) - 621279,10/12/18,29 Jun 18,Returned,  ,RTS - Return To Shipper,Returned,NULL,Customer out of station,,,12/07/18 14:01,Delivered / Closed,30/06/18 10:42,11/07/18 16:24,3,FK,demo,demo,"48, Temple Street, Vyalikaval, Kodandarampura, Malleshwaram West, Bengaluru, Karnataka 560003"
913625173,239431,cod,0.45,0.390580814264256,1799,421302,BHIWANDI - BWP,MUMBAI,560003,MALLESHWARAM,MALLESHWARAM,IntraRegion-ROS,ECOM FULFILLMENT CENTRE,RATHIRA AYURVEDA PRIVATE LIMITED (10 DAYS HAIR OIL) - 621279,10/12/18,29 Jun 18,Returned,  ,RTS - Return To Shipper,Returned,NULL,Customer out of station,,,12/07/18 14:01,Delivered / Closed,30/06/18 10:42,11/07/18 16:24,3,FK,demo,demo,"10, 1st Cross Rd, Yalappa Garden, Malleshwaram West, Bengaluru, Karnataka 560003"
913625174,239432,cod,0.45,0.390580814264256,1799,421302,BHIWANDI - BWP,MUMBAI,560003,MALLESHWARAM,MALLESHWARAM,IntraRegion-ROS,ECOM FULFILLMENT CENTRE,RATHIRA AYURVEDA PRIVATE LIMITED (10 DAYS HAIR OIL) - 621279,10/12/18,29 Jun 18,Returned,  ,RTS - Return To Shipper,Returned,NULL,Customer out of station,,,12/07/18 14:01,Delivered / Closed,30/06/18 10:42,11/07/18 16:24,3,FK,demo,demo,"116/5, 2nd Floor, Above Titan Showroom, 12th Cross, Margos Road, Malleshwaram, Malleshwaram West, Bengaluru, Karnataka 560003

"
913625175,239433,cod,0.45,0.390580814264256,1799,421302,BHIWANDI - BWP,MUMBAI,560003,MALLESHWARAM,MALLESHWARAM,IntraRegion-ROS,ECOM FULFILLMENT CENTRE,RATHIRA AYURVEDA PRIVATE LIMITED (10 DAYS HAIR OIL) - 621279,10/12/18,29 Jun 18,Returned,  ,RTS - Return To Shipper,Returned,NULL,Customer out of station,,,12/07/18 14:01,Delivered / Closed,30/06/18 10:42,11/07/18 16:24,3,FK,demo,demo,"Vyalikaval, Kodandarampura, Malleshwaram West, Bengaluru, Karnataka 560003"
913625176,239434,cod,0.45,0.390580814264256,1799,421302,BHIWANDI - BWP,MUMBAI,560003,MALLESHWARAM,MALLESHWARAM,IntraRegion-ROS,ECOM FULFILLMENT CENTRE,RATHIRA AYURVEDA PRIVATE LIMITED (10 DAYS HAIR OIL) - 621279,10/12/18,29 Jun 18,Returned,  ,RTS - Return To Shipper,Returned,NULL,Customer out of station,,,12/07/18 14:01,Delivered / Closed,30/06/18 10:42,11/07/18 16:24,3,FK,demo,demo,"Kodandaramapuram Bhajana Mandira, 1st Main Rd, Vyalikaval, Kodandarampura, Malleshwaram West, Bengaluru, Karnataka 560003"
913625177,239435,cod,0.45,0.390580814264256,1799,421302,BHIWANDI - BWP,MUMBAI,560003,MALLESHWARAM,MALLESHWARAM,IntraRegion-ROS,ECOM FULFILLMENT CENTRE,RATHIRA AYURVEDA PRIVATE LIMITED (10 DAYS HAIR OIL) - 621279,10/12/18,29 Jun 18,Returned,  ,RTS - Return To Shipper,Returned,NULL,Customer out of station,,,12/07/18 14:01,Delivered / Closed,30/06/18 10:42,11/07/18 16:24,3,FK,demo,demo,"Vyalikaval Layout, Vyalikaval, Kodandarampura, Malleshwaram West, Bengaluru, Karnataka 560003"
913625178,239436,cod,0.45,0.390580814264256,1799,421302,BHIWANDI - BWP,MUMBAI,560003,MALLESHWARAM,MALLESHWARAM,IntraRegion-ROS,ECOM FULFILLMENT CENTRE,RATHIRA AYURVEDA PRIVATE LIMITED (10 DAYS HAIR OIL) - 621279,10/12/18,29 Jun 18,Returned,  ,RTS - Return To Shipper,Returned,NULL,Customer out of station,,,12/07/18 14:01,Delivered / Closed,30/06/18 10:42,11/07/18 16:24,3,FK,demo,demo,"58/1, 13th Cross Road, Malleshwaram West, Bengaluru, Karnataka 560003"
