AirWaybill_No,Order_No,Product_Type,Weight,Vol_Weight,COD_Amount,Origin_Pincode,Origin_SC,Origin_City,Destination_Pincode,Destination_SC,Destination_City,Zone,Vendor,Consignee,Softdata_Upload,Expected_Date,Status,Remarks,Current_Reason,Summary_Status,Reason,Last_Reason,Delivery_date,Received_by,Lastupdated_date,Return_status,First_outscan,Last_outscan,No_of_attempts,Company_name,customer_name,mobile,address
921196101,239300,cod,0.5,0,1799,641021,COIMBATORE - CJT,SALEM,560072,PODILI - PIL,PODILI,IntraRegion-ROS,RATHIRA AYURVEDA PRIVATE LIMITED,Sreenu merikapudi,10/11/18,2 Jul 18,Delivered / Closed,  ,Delivered,Delivered,,,30/06/18 11:31,Self:Sreenu merikapudi: Android,30/06/18 11:31,,29/06/18 09:13,30/06/18 09:18,2,FK,demo,demo,"@Bekkarle, complex 6th Main Rd, 11th Block, Marilingappa Extension, Nagarbhavi, Bengaluru, Karnataka 560072"
921196071,239287,cod,0.5,0,1799,641021,COIMBATORE - CJT,SALEM,560072,PODILI - PIL,PODILI,IntraRegion-ROS,RATHIRA AYURVEDA PRIVATE LIMITED,Sreenu merikapudi,10/11/18,2 Jul 18,Delivered / Closed,  ,Delivered,Delivered,,,30/06/18 11:31,Self:Sreenu merikapudi: Android,30/06/18 11:31,,29/06/18 09:13,30/06/18 09:18,2,FK,demo,demo,"#12, Main Road 702  1st, II nd MAIN II nd STAGE, 11th Block, Marilingappa Extension, Nagarbhavi, Bengaluru, Karnataka 560072"
