AirWaybill_No,Order_No,Product_Type,Weight,Vol_Weight,COD_Amount,Origin_Pincode,Origin_SC,Origin_City,Destination_Pincode,Destination_SC,Destination_City,Zone,Vendor,Consignee,Softdata_Upload,Expected_Date,Status,Remarks,Current_Reason,Summary_Status,Reason,Last_Reason,Delivery_date,Received_by,Lastupdated_date,Return_status,First_outscan,Last_outscan,No_of_attempts,Company_name,customer_name,mobile,address
921196101,239300,cod,0.5,0,1799,641021,COIMBATORE - CJT,SALEM,560072,PODILI - PIL,PODILI,IntraRegion-ROS,RATHIRA AYURVEDA PRIVATE LIMITED,Sreenu merikapudi,10/11/18,2 Jul 18,Delivered / Closed,  ,Delivered,Delivered,,,30/06/18 11:31,Self:Sreenu merikapudi: Android,30/06/18 11:31,,29/06/18 09:13,30/06/18 09:18,2,FK,demo,demo,"Bekkarle, complex 6th Main Rd, 11th Block, Marilingappa Extension, Nagarbhavi, Bengaluru, Karnataka 560072"
921196071,239287,cod,0.5,0,1799,641021,COIMBATORE - CJT,SALEM,560072,PODILI - PIL,PODILI,IntraRegion-ROS,RATHIRA AYURVEDA PRIVATE LIMITED,Sreenu merikapudi,10/11/18,2 Jul 18,Delivered / Closed,  ,Delivered,Delivered,,,30/06/18 11:31,Self:Sreenu merikapudi: Android,30/06/18 11:31,,29/06/18 09:13,30/06/18 09:18,2,FK,demo,demo," Main Road 702 #12 1st, II nd MAIN II nd STAGE, 11th Block, Marilingappa Extension, Nagarbhavi, Bengaluru, Karnataka 560072"
921196076,239018,cod,0.5,0,1799,641021,COIMBATORE - CJT,SALEM,560073,PODILI - PIL,PODILI,IntraRegion-ROS,RATHIRA AYURVEDA PRIVATE LIMITED,Rajkumar Maiti,06/12/18,30 Jun 18,Delivered / Closed,  ,Delivered,Delivered,,,29/06/18 13:13,Self:Rajkumar Maiti: Android,29/06/18 13:13,,29/06/18 10:15,29/06/18 10:15,1,FK,demo,demo,"No 516, 12th Main, MS Ramaiah Enclave,, 8th Mile,Hesarghatta Main Road,, Havanur Layout, Bagalakunte, Bengaluru, Karnataka 560073"
921196077,239271,cod,0.5,0,1799,641021,COIMBATORE - CJT,SALEM,560073,GOKAVARAM - GVM,GOKAVARAM,IntraRegion-ROS,RATHIRA AYURVEDA PRIVATE LIMITED,Tulasidas S Kamat,06/12/18,30 Jun 18,Returned,  ,RTS - Return To Shipper,Returned,NULL,Order already cancelled,,,06/07/18 07:40,Delivered / Closed,29/06/18 07:10,05/07/18 16:32,3,FK,demo,demo,"Rukmini Nagar, Bengaluru, Karnataka 560073"
921196078,239330,cod,0.5,0,1799,641021,COIMBATORE - CJT,SALEM,560073,BHADRAVATI - BDT,BHADRAVATI,IntraRegion-ROS,RATHIRA AYURVEDA PRIVATE LIMITED,Aruna Prakash,06/12/18,29 Jun 18,Delivered / Closed,  ,Delivered,Undelivered,,,28/06/18 19:45,Self:Aruna Prakash: Android,28/06/18 19:45,,28/06/18 15:07,28/06/18 15:07,1,FK,demo,demo,"No 211, 5th Cross, Mayanna Layout, Shrikantapura, Anchepalya, Bengaluru, Karnataka 560073"
921196080,239299,cod,0.5,0,1799,641021,COIMBATORE - CJT,SALEM,560071,GOKAVARAM - GVM,GOKAVARAM,IntraRegion-ROS,RATHIRA AYURVEDA PRIVATE LIMITED,Kesavulu,06/12/18,29 Jun 18,Delivered / Closed,  ,Delivered,Delivered,,,30/06/18 17:10,Self:Kesavulu: Android,30/06/18 17:10,,29/06/18 11:27,30/06/18 10:54,2,FK,demo,demo,"Maruthi Info-Tech Centre, 11, 12/1, 100 Feet Rd, Embassy Golf Links Business Park, Koramangala, Bengaluru, Karnataka 560071"
921196081,239078,cod,0.5,0,1499,641021,COIMBATORE - CJT,SALEM,560071,BHADRAVATI - BDT,BHADRAVATI,IntraRegion-ROS,RATHIRA AYURVEDA PRIVATE LIMITED,Basheer,06/12/18,29 Jun 18,Returned,  ,RTS - Return To Shipper,Undelivered,NULL,Out of Delivery Area,,,11/07/18 14:53,Delivered / Closed,29/06/18 11:48,07/07/18 11:00,2,FK,demo,demo,"Pebble Beach, Off Intermediate Ring Road, Embassy Golf Links Business Park, Challaghatta, Bengaluru, Karnataka 560071"
