AirWaybill_No,Order_No,Product_Type,Weight,Vol_Weight,COD_Amount,Origin_Pincode,Origin_SC,Origin_City,Destination_Pincode,Destination_SC,Destination_City,Zone,Vendor,Consignee,Softdata_Upload,Expected_Date,Status,Remarks,Current_Reason,Summary_Status,Reason,Last_Reason,Delivery_date,Received_by,Lastupdated_date,Return_status,First_outscan,Last_outscan,No_of_attempts,Company_name,lat,lng,customer_name,mobile
921196101,239300,cod,0.5,0,1799,641021,COIMBATORE - CJT,SALEM,523247,PODILI - PIL,PODILI,IntraRegion-ROS,RATHIRA AYURVEDA PRIVATE LIMITED,Sreenu merikapudi,06/10/18,2 Jul 18,Delivered / Closed,  ,Delivered,Delivered,,,30/06/18 11:31,Self:Sreenu merikapudi: Android,30/06/18 11:31,,29/06/18 09:13,30/06/18 09:18,2,FK,15.819091,79.681,demo,demo
921196071,239287,cod,0.5,0,1799,641021,COIMBATORE - CJT,SALEM,523247,PODILI - PIL,PODILI,IntraRegion-ROS,RATHIRA AYURVEDA PRIVATE LIMITED,Sreenu merikapudi,06/10/18,2 Jul 18,Delivered / Closed,  ,Delivered,Delivered,,,30/06/18 11:31,Self:Sreenu merikapudi: Android,30/06/18 11:31,,29/06/18 09:13,30/06/18 09:18,2,FK,15.819091,79.681,demo,demo
921196072,239531,cod,0.5,0,1799,641021,COIMBATORE - CJT,SALEM,523247,PODILI - PIL,PODILI,IntraRegion-ROS,RATHIRA AYURVEDA PRIVATE LIMITED,Manikumar,06/10/18,30 Jun 18,Returned,  ,RTS - Return To Shipper,Undelivered,NULL,No Such Consignee At Given Address,,,06/07/18 10:31,Delivered / Closed,29/06/18 09:45,03/07/18 17:03,5,FK,15.820263,79.698135,demo,demo
921196073,239388,cod,0.5,0,1799,641021,COIMBATORE - CJT,SALEM,577245,BHADRAVATI - BDT,BHADRAVATI,IntraRegion-ROS,RATHIRA AYURVEDA PRIVATE LIMITED,Ummadigalla Sandhya,06/10/18,30 Jun 18,Returned,  ,RTS - Return To Shipper,Returned,NULL,Order already cancelled,,,06/07/18 10:13,Delivered / Closed,29/06/18 08:10,05/07/18 11:02,3,FK,13.837089,75.745643,demo,demo
921196074,239035,cod,0.5,0,999,641021,COIMBATORE - CJT,SALEM,581316,GOKAVARAM - GVM,GOKAVARAM,IntraRegion-ROS,RATHIRA AYURVEDA PRIVATE LIMITED,Mohan,06/10/18,2 Jul 18,Delivered / Closed,  ,Delivered,Delivered,,,30/06/18 15:18,Self:Mohan: Android,30/06/18 15:18,,30/06/18 12:16,30/06/18 12:16,1,FK,14.7569,74.300257,demo,demo
921196075,239166,cod,0.5,0,1799,641021,COIMBATORE - CJT,SALEM,577245,BHADRAVATI - BDT,BHADRAVATI,IntraRegion-ROS,RATHIRA AYURVEDA PRIVATE LIMITED,Deepak p,06/10/18,29 Jun 18,Returned,  ,RTS - Return To Shipper,Undelivered,NULL,,,,10/07/18 09:51,Delivered / Closed,28/06/18 10:06,28/06/18 10:06,1,FK,13.811402,75.761502,demo,demo
921196076,239018,cod,0.5,0,1799,641021,COIMBATORE - CJT,SALEM,523247,PODILI - PIL,PODILI,IntraRegion-ROS,RATHIRA AYURVEDA PRIVATE LIMITED,Rajkumar Maiti,06/10/18,30 Jun 18,Delivered / Closed,  ,Delivered,Delivered,,,29/06/18 13:13,Self:Rajkumar Maiti: Android,29/06/18 13:13,,29/06/18 10:15,29/06/18 10:15,1,FK,15.834688,79.693245,demo,demo
921196077,239271,cod,0.5,0,1799,641021,COIMBATORE - CJT,SALEM,581316,GOKAVARAM - GVM,GOKAVARAM,IntraRegion-ROS,RATHIRA AYURVEDA PRIVATE LIMITED,Tulasidas S Kamat,05/10/18,30 Jun 18,Returned,  ,RTS - Return To Shipper,Returned,NULL,Order already cancelled,,,06/07/18 07:40,Delivered / Closed,29/06/18 07:10,05/07/18 16:32,3,FK,14.748019,74.298025,demo,demo
921196078,239330,cod,0.5,0,1799,641021,COIMBATORE - CJT,SALEM,577245,BHADRAVATI - BDT,BHADRAVATI,IntraRegion-ROS,RATHIRA AYURVEDA PRIVATE LIMITED,Aruna Prakash,05/10/18,29 Jun 18,Delivered / Closed,  ,Delivered,Undelivered,,,28/06/18 19:45,Self:Aruna Prakash: Android,28/06/18 19:45,,28/06/18 15:07,28/06/18 15:07,1,FK,13.81624,75.745678,demo,demo
921196079,239022,cod,0.5,0,1799,641021,COIMBATORE - CJT,SALEM,523247,PODILI - PIL,PODILI,IntraRegion-ROS,RATHIRA AYURVEDA PRIVATE LIMITED,Nazar,05/10/18,29 Jun 18,Delivered / Closed,  ,Delivered,Delivered,,,29/06/18 17:00,Self:Nazar: Android,29/06/18 17:00,,29/06/18 11:52,29/06/18 11:52,1,FK,15.841455,79.707325,demo,demo
921196080,239299,cod,0.5,0,1799,641021,COIMBATORE - CJT,SALEM,581316,GOKAVARAM - GVM,GOKAVARAM,IntraRegion-ROS,RATHIRA AYURVEDA PRIVATE LIMITED,Kesavulu,05/10/18,29 Jun 18,Delivered / Closed,  ,Delivered,Delivered,,,30/06/18 17:10,Self:Kesavulu: Android,30/06/18 17:10,,29/06/18 11:27,30/06/18 10:54,2,FK,14.752084,74.305793,demo,demo
921196081,239078,cod,0.5,0,1499,641021,COIMBATORE - CJT,SALEM,577245,BHADRAVATI - BDT,BHADRAVATI,IntraRegion-ROS,RATHIRA AYURVEDA PRIVATE LIMITED,Basheer,05/10/18,29 Jun 18,Returned,  ,RTS - Return To Shipper,Undelivered,NULL,Out of Delivery Area,,,11/07/18 14:53,Delivered / Closed,29/06/18 11:48,07/07/18 11:00,2,FK,13.809173,75.764142,demo,demo
921196082,239409,cod,0.5,0,1799,641021,COIMBATORE - CJT,SALEM,581316,GOKAVARAM - GVM,GOKAVARAM,IntraRegion,RATHIRA AYURVEDA PRIVATE LIMITED,Jinesh sukumaran,05/10/18,29 Jun 18,Returned,  ,RTS - Return To Shipper,Returned,NULL,Order already cancelled,,,07/07/18 17:08,Delivered / Closed,28/06/18 09:15,06/07/18 11:06,3,FK,14.767024,74.303049,demo,demo
921196081,239078,cod,0.5,0,1499,641021,COIMBATORE - CJT,SALEM,680681,CHALAKUDY - CKY,CHALAKUDY,IntraRegion-ROS,RATHIRA AYURVEDA PRIVATE LIMITED,RATHIRA AYURVEDA PRIVATE LIMITED (10 DAYS HAIR OIL) - 621279,05/10/18,29 Jun 18,Returned,  ,RTS - Return To Shipper,Returned,NULL,Out of Delivery Area,,,11/07/18 14:53,Delivered / Closed,29/06/18 11:48,07/07/18 11:00,2,FK,10.34425,76.143583,demo,demo
921196082,239409,cod,0.5,0,1799,641021,COIMBATORE - CJT,SALEM,611111,Nilambur-NLB,Nilambur,IntraRegion,RATHIRA AYURVEDA PRIVATE LIMITED,RATHIRA AYURVEDA PRIVATE LIMITED (10 DAYS HAIR OIL) - 621279,07/10/18,29 Jun 18,Returned,  ,RTS - Return To Shipper,Undelivered,NULL,Order already cancelled,,,07/07/18 17:08,Delivered / Closed,28/06/18 09:15,06/07/18 11:06,3,FK,10.652756,79.838148,demo,demo
921196083,239158,cod,0.5,0,1799,641021,COIMBATORE - CJT,SALEM,424206,SATANA-STX,SATANA,IntraRegion-ROS,RATHIRA AYURVEDA PRIVATE LIMITED,RATHIRA AYURVEDA PRIVATE LIMITED (10 DAYS HAIR OIL) - 621279,06/10/18,28 Jun 18,Returned,  ,RTS - Return To Shipper,Returned,NULL,Order already cancelled,,,05/07/18 15:48,Delivered / Closed,27/06/18 09:21,30/06/18 09:38,3,FK,20.880613,75.753121,demo,demo
921196084,239483,cod,0.5,0,1799,641021,COIMBATORE - CJT,SALEM,611111,Nilambur-NLB,Nilambur,IntraRegion,RATHIRA AYURVEDA PRIVATE LIMITED,RATHIRA AYURVEDA PRIVATE LIMITED (10 DAYS HAIR OIL) - 621279,06/10/18,28 Jun 18,Returned,  ,RTS - Return To Shipper,Returned,NULL,Order already cancelled,,,05/07/18 10:31,Delivered / Closed,28/06/18 10:10,03/07/18 10:26,3,FK,10.666926,79.846046,demo,demo
921196085,239260,cod,0.5,0,1079,641021,COIMBATORE - CJT,SALEM,680681,CHALAKUDY - CKY,CHALAKUDY,IntraRegion,RATHIRA AYURVEDA PRIVATE LIMITED,RATHIRA AYURVEDA PRIVATE LIMITED (10 DAYS HAIR OIL) - 621279,06/10/18,28 Jun 18,Delivered / Closed,  ,Delivered,Undelivered,,COD amount not ready,02/07/18 16:24,Self:S JOHNSON: Android,02/07/18 16:24,,28/06/18 07:32,02/07/18 10:35,3,FK,10.341632,76.153969,demo,demo
921196086,239318,cod,0.5,0,1799,641021,COIMBATORE - CJT,SALEM,424206,SATANA-STX,SATANA,IntraRegion-ROS,RATHIRA AYURVEDA PRIVATE LIMITED,RATHIRA AYURVEDA PRIVATE LIMITED (10 DAYS HAIR OIL) - 621279,06/10/18,29 Jun 18,Delivered / Closed,  ,Delivered,Returned,,,28/06/18 14:03,Self:S.muthukumar: Android,28/06/18 14:03,,27/06/18 11:10,28/06/18 11:13,2,FK,20.874182,75.774409,demo,demo
921196087,239344,cod,0.5,0,1799,641021,COIMBATORE - CJT,SALEM,611111,Nilambur-NLB,Nilambur,IntraRegion,RATHIRA AYURVEDA PRIVATE LIMITED,RATHIRA AYURVEDA PRIVATE LIMITED (10 DAYS HAIR OIL) - 621279,06/10/18,28 Jun 18,Returned,  ,RTS - Return To Shipper,Undelivered,NULL,Order already cancelled,,,05/07/18 17:07,Delivered / Closed,28/06/18 10:51,03/07/18 17:16,3,FK,10.670469,79.846218,demo,demo
921196088,239386,cod,0.5,0,1799,641021,COIMBATORE - CJT,SALEM,611111,Nilambur-NLB,Nilambur,IntraRegion-ROS,RATHIRA AYURVEDA PRIVATE LIMITED,RATHIRA AYURVEDA PRIVATE LIMITED (10 DAYS HAIR OIL) - 621279,08/10/18,29 Jun 18,Returned,  ,RTS - Return To Shipper,Returned,NULL,Consignee Refused To Accept,,,06/07/18 17:45,Delivered / Closed,29/06/18 10:48,05/07/18 08:54,3,FK,10.673336,79.846733,demo,demo
921196089,239282,cod,0.5,0,1299,641021,COIMBATORE - CJT,SALEM,611111,Nilambur-NLB,Nilambur,IntraRegion-ROS,RATHIRA AYURVEDA PRIVATE LIMITED,RATHIRA AYURVEDA PRIVATE LIMITED (10 DAYS HAIR OIL) - 621279,08/10/18,29 Jun 18,Delivered / Closed,  ,Delivered,Undelivered,,,29/06/18 11:18,Self:Mahesh: Android,29/06/18 11:18,,29/06/18 09:28,29/06/18 09:28,1,FK,10.660533,79.838516,demo,demo
913625168,239426,cod,0.45,0.390580814264256,1799,421302,BHIWANDI - BWP,MUMBAI,424206,SATANA-STX,SATANA,IntraRegion,ECOM FULFILLMENT CENTRE,RATHIRA AYURVEDA PRIVATE LIMITED (10 DAYS HAIR OIL) - 621279,08/10/18,29 Jun 18,Returned,  ,RTS - Return To Shipper,Returned,NULL,Order already cancelled,,,06/07/18 09:30,Delivered / Closed,28/06/18 12:36,05/07/18 11:00,3,FK,20.858771,75.786072,demo,demo
913625169,239115,cod,0.45,0.390580814264256,1799,421302,BHIWANDI - BWP,MUMBAI,424206,SATANA-STX,SATANA,IntraRegion-ROS,ECOM FULFILLMENT CENTRE,RATHIRA AYURVEDA PRIVATE LIMITED (10 DAYS HAIR OIL) - 621279,08/10/18,29 Jun 18,Returned,  ,RTS - Return To Shipper,Returned,NULL,Customer out of station,,,12/07/18 14:01,Delivered / Closed,30/06/18 10:42,11/07/18 16:24,3,FK,20.840809,75.779187,demo,demo
913625170,239467,cod,0.45,0.390580814264256,1499,421302,BHIWANDI - BWP,MUMBAI,581316,GOKAVARAM - GVM,GOKAVARAM,IntraRegion,ECOM FULFILLMENT CENTRE,RATHIRA AYURVEDA PRIVATE LIMITED (10 DAYS HAIR OIL) - 621279,08/10/18,28 Jun 18,Delivered / Closed,  ,Delivered,Undelivered,,,02/07/18 14:49,Self:ZAHEER SHAIKH: Android,02/07/18 14:49,,28/06/18 11:40,02/07/18 11:48,2,FK,14.773167,74.295153,demo,demo
913625171,239148,cod,0.45,0.390580814264256,1499,421302,BHIWANDI - BWP,MUMBAI,611111,Nilambur-NLB,Nilambur,IntraRegion-ROS,ECOM FULFILLMENT CENTRE,RATHIRA AYURVEDA PRIVATE LIMITED (10 DAYS HAIR OIL) - 621279,08/10/18,2 Jul 18,Returned,  ,RTS - Return To Shipper,Returned,NULL,Customer not in office,,,09/07/18 15:36,Delivered / Closed,01/07/18 11:11,03/07/18 13:11,3,FK,10.654459,79.837142,demo,demo
913625172,239476,cod,0.45,0.390580814264256,1499,421302,BHIWANDI - BWP,MUMBAI,680681,CHALAKUDY - CKY,CHALAKUDY,IntraRegion,ECOM FULFILLMENT CENTRE,RATHIRA AYURVEDA PRIVATE LIMITED (10 DAYS HAIR OIL) - 621279,08/10/18,29 Jun 18,Delivered / Closed,  ,Delivered,Delivered,,,29/06/18 15:32,Self:Musaddique Momin: Android,29/06/18 15:32,,29/06/18 10:45,29/06/18 10:45,1,FK,10.358894,76.152683,demo,demo
913625173,239277,cod,0.45,0.390580814264256,1799,421302,BHIWANDI - BWP,MUMBAI,680681,CHALAKUDY - CKY,CHALAKUDY,IntraRegion-ROS,ECOM FULFILLMENT CENTRE,RATHIRA AYURVEDA PRIVATE LIMITED (10 DAYS HAIR OIL) - 621279,08/10/18,29 Jun 18,Delivered / Closed,  ,Delivered,Delivered,,,29/06/18 16:40,Self:Aniket Krushna Shinde: Android,29/06/18 16:40,,29/06/18 10:49,29/06/18 10:49,1,FK,10.372441,76.151825,demo,demo
913625174,239053,cod,0.45,0.390580814264256,1499,421302,BHIWANDI - BWP,MUMBAI,611111,Nilambur-NLB,Nilambur,IntraRegion-ROS,ECOM FULFILLMENT CENTRE,RATHIRA AYURVEDA PRIVATE LIMITED (10 DAYS HAIR OIL) - 621279,08/10/18,28 Jun 18,Returned,  ,RTS - Return To Shipper,Undelivered,NULL,Order already cancelled,,,07/07/18 10:08,Delivered / Closed,28/06/18 09:42,06/07/18 12:14,3,FK,10.651338,79.837657,demo,demo
913625175,239347,cod,0.45,0.390580814264256,1799,421302,BHIWANDI - BWP,MUMBAI,680681,CHALAKUDY - CKY,CHALAKUDY,IntraRegion,ECOM FULFILLMENT CENTRE,RATHIRA AYURVEDA PRIVATE LIMITED (10 DAYS HAIR OIL) - 621279,08/10/18,28 Jun 18,Delivered / Closed,  ,Delivered,Delivered,,,29/06/18 11:02,Self:Gayatri bhagria: Android,29/06/18 11:02,,28/06/18 09:26,29/06/18 09:08,2,FK,10.345516,76.148476,demo,demo
921196178,239350,cod,0.5,0,1799,641021,COIMBATORE - CJT,SALEM,611111,Nilambur-NLB,Nilambur,IntraRegion-ROS,RATHIRA AYURVEDA PRIVATE LIMITED,RATHIRA AYURVEDA PRIVATE LIMITED (10 DAYS HAIR OIL) - 621279,08/10/18,29 Jun 18,Returned,  ,RTS - Return To Shipper,Returned,NULL,Consignee Refused To Accept,,,06/07/18 17:45,Delivered / Closed,29/06/18 10:48,05/07/18 08:54,3,FK,10.68336,79.846733,demo,demo
921196179,239351,cod,0.5,0,1299,641021,COIMBATORE - CJT,SALEM,611111,Nilambur-NLB,Nilambur,IntraRegion-ROS,RATHIRA AYURVEDA PRIVATE LIMITED,RATHIRA AYURVEDA PRIVATE LIMITED (10 DAYS HAIR OIL) - 621279,08/10/18,29 Jun 18,Delivered / Closed,  ,Delivered,Undelivered,,,29/06/18 11:18,Self:Mahesh: Android,29/06/18 11:18,,29/06/18 09:28,29/06/18 09:28,1,FK,10.679001,79.838516,demo,demo
913625180,239352,cod,0.45,0.390580814264256,1799,421302,BHIWANDI - BWP,MUMBAI,424206,SATANA-STX,SATANA,IntraRegion,ECOM FULFILLMENT CENTRE,RATHIRA AYURVEDA PRIVATE LIMITED (10 DAYS HAIR OIL) - 621279,08/10/18,29 Jun 18,Returned,  ,RTS - Return To Shipper,Returned,NULL,Order already cancelled,,,06/07/18 09:30,Delivered / Closed,28/06/18 12:36,05/07/18 11:00,3,FK,20.872345,75.786072,demo,demo
913625181,239353,cod,0.45,0.390580814264256,1799,421302,BHIWANDI - BWP,MUMBAI,424206,SATANA-STX,SATANA,IntraRegion-ROS,ECOM FULFILLMENT CENTRE,RATHIRA AYURVEDA PRIVATE LIMITED (10 DAYS HAIR OIL) - 621279,08/10/18,29 Jun 18,Returned,  ,RTS - Return To Shipper,Returned,NULL,Customer out of station,,,12/07/18 14:01,Delivered / Closed,30/06/18 10:42,11/07/18 16:24,3,FK,20.8954,75.779187,demo,demo
913625182,239354,cod,0.45,0.390580814264256,1799,421302,BHIWANDI - BWP,MUMBAI,581316,GOKAVARAM - GVM,GOKAVARAM,IntraRegion,ECOM FULFILLMENT CENTRE,RATHIRA AYURVEDA PRIVATE LIMITED (10 DAYS HAIR OIL) - 621279,08/10/18,28 Jun 18,Delivered / Closed,  ,Delivered,Undelivered,,,02/07/18 14:49,Self:ZAHEER SHAIKH: Android,02/07/18 14:49,,28/06/18 11:40,02/07/18 11:48,2,FK,14.78467,74.295153,demo,demo
913625183,239355,cod,0.45,0.390580814264256,1799,421302,BHIWANDI - BWP,MUMBAI,611111,Nilambur-NLB,Nilambur,IntraRegion-ROS,ECOM FULFILLMENT CENTRE,RATHIRA AYURVEDA PRIVATE LIMITED (10 DAYS HAIR OIL) - 621279,08/10/18,2 Jul 18,Returned,  ,RTS - Return To Shipper,Returned,NULL,Customer not in office,,,09/07/18 15:36,Delivered / Closed,01/07/18 11:11,03/07/18 13:11,3,FK,10.678985,79.837142,demo,demo
913625184,239356,cod,0.45,0.390580814264256,1799,421302,BHIWANDI - BWP,MUMBAI,680681,CHALAKUDY - CKY,CHALAKUDY,IntraRegion,ECOM FULFILLMENT CENTRE,RATHIRA AYURVEDA PRIVATE LIMITED (10 DAYS HAIR OIL) - 621279,08/10/18,29 Jun 18,Delivered / Closed,  ,Delivered,Delivered,,,29/06/18 15:32,Self:Musaddique Momin: Android,29/06/18 15:32,,29/06/18 10:45,29/06/18 10:45,1,FK,10.365784,76.152683,demo,demo
913625185,239357,cod,0.45,0.390580814264256,1799,421302,BHIWANDI - BWP,MUMBAI,680681,CHALAKUDY - CKY,CHALAKUDY,IntraRegion-ROS,ECOM FULFILLMENT CENTRE,RATHIRA AYURVEDA PRIVATE LIMITED (10 DAYS HAIR OIL) - 621279,08/10/18,29 Jun 18,Delivered / Closed,  ,Delivered,Delivered,,,29/06/18 16:40,Self:Aniket Krushna Shinde: Android,29/06/18 16:40,,29/06/18 10:49,29/06/18 10:49,1,FK,10.377841,76.151825,demo,demo
913625186,239358,cod,0.45,0.390580814264256,1499,421302,BHIWANDI - BWP,MUMBAI,611111,Nilambur-NLB,Nilambur,IntraRegion-ROS,ECOM FULFILLMENT CENTRE,RATHIRA AYURVEDA PRIVATE LIMITED (10 DAYS HAIR OIL) - 621279,08/10/18,28 Jun 18,Returned,  ,RTS - Return To Shipper,Undelivered,NULL,Order already cancelled,,,07/07/18 10:08,Delivered / Closed,28/06/18 09:42,06/07/18 12:14,3,FK,10.668788,79.817657,demo,demo
913625187,239359,cod,0.45,0.390580814264256,999,421302,BHIWANDI - BWP,MUMBAI,680681,CHALAKUDY - CKY,CHALAKUDY,IntraRegion,ECOM FULFILLMENT CENTRE,RATHIRA AYURVEDA PRIVATE LIMITED (10 DAYS HAIR OIL) - 621279,08/10/18,28 Jun 18,Delivered / Closed,  ,Delivered,Delivered,,,29/06/18 11:02,Self:Gayatri bhagria: Android,29/06/18 11:02,,28/06/18 09:26,29/06/18 09:08,2,FK,10.335516,76.128476,demo,demo
921196188,239360,cod,0.5,0,999,641021,COIMBATORE - CJT,SALEM,523247,PODILI - PIL,PODILI,IntraRegion-ROS,RATHIRA AYURVEDA PRIVATE LIMITED,Sreenu merikapudi,06/10/18,2 Jul 18,Delivered / Closed,  ,Delivered,Delivered,,,30/06/18 11:31,Self:Sreenu merikapudi: Android,30/06/18 11:31,,29/06/18 09:13,30/06/18 09:18,2,FK,15.859091,79.687681,demo,demo
921196189,239361,cod,0.5,0,999,641021,COIMBATORE - CJT,SALEM,523247,PODILI - PIL,PODILI,IntraRegion-ROS,RATHIRA AYURVEDA PRIVATE LIMITED,Sreenu merikapudi,06/10/18,2 Jul 18,Delivered / Closed,  ,Delivered,Delivered,,,30/06/18 11:31,Self:Sreenu merikapudi: Android,30/06/18 11:31,,29/06/18 09:13,30/06/18 09:18,2,FK,15.879091,79.665631,demo,demo
921196190,239362,cod,0.5,0,999,641021,COIMBATORE - CJT,SALEM,523247,PODILI - PIL,PODILI,IntraRegion-ROS,RATHIRA AYURVEDA PRIVATE LIMITED,Manikumar,06/10/18,30 Jun 18,Returned,  ,RTS - Return To Shipper,Undelivered,NULL,No Such Consignee At Given Address,,,06/07/18 10:31,Delivered / Closed,29/06/18 09:45,03/07/18 17:03,5,FK,15.830263,79.638135,demo,demo
921196191,239363,cod,0.5,0,1799,641021,COIMBATORE - CJT,SALEM,577245,BHADRAVATI - BDT,BHADRAVATI,IntraRegion-ROS,RATHIRA AYURVEDA PRIVATE LIMITED,Ummadigalla Sandhya,06/10/18,30 Jun 18,Returned,  ,RTS - Return To Shipper,Returned,NULL,Order already cancelled,,,06/07/18 10:13,Delivered / Closed,29/06/18 08:10,05/07/18 11:02,3,FK,13.857089,75.755643,demo,demo
921196192,239364,cod,0.5,0,999,641021,COIMBATORE - CJT,SALEM,581316,GOKAVARAM - GVM,GOKAVARAM,IntraRegion-ROS,RATHIRA AYURVEDA PRIVATE LIMITED,Mohan,07/10/18,2 Jul 18,Delivered / Closed,  ,Delivered,Delivered,,,30/06/18 15:18,Self:Mohan: Android,30/06/18 15:18,,30/06/18 12:16,30/06/18 12:16,1,FK,14.756459,74.350257,demo,demo
921196193,239365,cod,0.5,0,1799,641021,COIMBATORE - CJT,SALEM,577245,BHADRAVATI - BDT,BHADRAVATI,IntraRegion-ROS,RATHIRA AYURVEDA PRIVATE LIMITED,Deepak p,07/10/18,29 Jun 18,Returned,  ,RTS - Return To Shipper,Undelivered,NULL,,,,10/07/18 09:51,Delivered / Closed,28/06/18 10:06,28/06/18 10:06,1,FK,13.871402,75.731502,demo,demo
921196194,239366,cod,0.5,0,1799,641021,COIMBATORE - CJT,SALEM,523247,PODILI - PIL,PODILI,IntraRegion-ROS,RATHIRA AYURVEDA PRIVATE LIMITED,Rajkumar Maiti,07/10/18,30 Jun 18,Delivered / Closed,  ,Delivered,Delivered,,,29/06/18 13:13,Self:Rajkumar Maiti: Android,29/06/18 13:13,,29/06/18 10:15,29/06/18 10:15,1,FK,15.814688,79.633245,demo,demo
921196195,239367,cod,0.5,0,1799,641021,COIMBATORE - CJT,SALEM,581316,GOKAVARAM - GVM,GOKAVARAM,IntraRegion-ROS,RATHIRA AYURVEDA PRIVATE LIMITED,Tulasidas S Kamat,07/10/18,30 Jun 18,Returned,  ,RTS - Return To Shipper,Returned,NULL,Order already cancelled,,,06/07/18 07:40,Delivered / Closed,29/06/18 07:10,05/07/18 16:32,3,FK,14.758019,74.228025,demo,demo
921196196,239368,cod,0.5,0,999,641021,COIMBATORE - CJT,SALEM,577245,BHADRAVATI - BDT,BHADRAVATI,IntraRegion-ROS,RATHIRA AYURVEDA PRIVATE LIMITED,Aruna Prakash,07/10/18,29 Jun 18,Delivered / Closed,  ,Delivered,Undelivered,,,28/06/18 19:45,Self:Aruna Prakash: Android,28/06/18 19:45,,28/06/18 15:07,28/06/18 15:07,1,FK,13.816624,75.725678,demo,demo
921196197,239369,cod,0.5,0,999,641021,COIMBATORE - CJT,SALEM,523247,PODILI - PIL,PODILI,IntraRegion-ROS,RATHIRA AYURVEDA PRIVATE LIMITED,Nazar,07/10/18,29 Jun 18,Delivered / Closed,  ,Delivered,Delivered,,,29/06/18 17:00,Self:Nazar: Android,29/06/18 17:00,,29/06/18 11:52,29/06/18 11:52,1,FK,15.871455,79.757325,demo,demo
921196198,239370,cod,0.5,0,999,641021,COIMBATORE - CJT,SALEM,523247,PODILI - PIL,PODILI,IntraRegion-ROS,RATHIRA AYURVEDA PRIVATE LIMITED,Sreenu merikapudi,04/10/18,2 Jul 18,Delivered / Closed,  ,Delivered,Delivered,,,30/06/18 11:31,Self:Sreenu merikapudi: Android,30/06/18 11:31,,29/06/18 09:13,30/06/18 09:18,2,FK,15.879091,79.668851,demo,demo
921196199,239371,cod,0.5,0,999,641021,COIMBATORE - CJT,SALEM,523247,PODILI - PIL,PODILI,IntraRegion-ROS,RATHIRA AYURVEDA PRIVATE LIMITED,Sreenu merikapudi,04/10/18,2 Jul 18,Delivered / Closed,  ,Delivered,Delivered,,,30/06/18 11:31,Self:Sreenu merikapudi: Android,30/06/18 11:31,,29/06/18 09:13,30/06/18 09:18,2,FK,15.899091,79.678811,demo,demo
921196200,239372,cod,0.5,0,999,641021,COIMBATORE - CJT,SALEM,523247,PODILI - PIL,PODILI,IntraRegion-ROS,RATHIRA AYURVEDA PRIVATE LIMITED,Manikumar,04/10/18,30 Jun 18,Returned,  ,RTS - Return To Shipper,Undelivered,NULL,No Such Consignee At Given Address,,,06/07/18 10:31,Delivered / Closed,29/06/18 09:45,03/07/18 17:03,5,FK,15.830263,79.678135,demo,demo
921196201,239373,cod,0.5,0,1799,641021,COIMBATORE - CJT,SALEM,577245,BHADRAVATI - BDT,BHADRAVATI,IntraRegion-ROS,RATHIRA AYURVEDA PRIVATE LIMITED,Ummadigalla Sandhya,04/10/18,30 Jun 18,Returned,  ,RTS - Return To Shipper,Returned,NULL,Order already cancelled,,,06/07/18 10:13,Delivered / Closed,29/06/18 08:10,05/07/18 11:02,3,FK,13.837089,75.795643,demo,demo
921196202,239374,cod,0.5,0,999,641021,COIMBATORE - CJT,SALEM,581316,GOKAVARAM - GVM,GOKAVARAM,IntraRegion-ROS,RATHIRA AYURVEDA PRIVATE LIMITED,Mohan,04/10/18,2 Jul 18,Delivered / Closed,  ,Delivered,Delivered,,,30/06/18 15:18,Self:Mohan: Android,30/06/18 15:18,,30/06/18 12:16,30/06/18 12:16,1,FK,14.778869,74.310257,demo,demo
921196203,239375,cod,0.5,0,1799,641021,COIMBATORE - CJT,SALEM,577245,BHADRAVATI - BDT,BHADRAVATI,IntraRegion-ROS,RATHIRA AYURVEDA PRIVATE LIMITED,Deepak p,04/10/18,29 Jun 18,Returned,  ,RTS - Return To Shipper,Undelivered,NULL,,,,10/07/18 09:51,Delivered / Closed,28/06/18 10:06,28/06/18 10:06,1,FK,13.821402,75.763502,demo,demo
921196204,239376,cod,0.5,0,1799,641021,COIMBATORE - CJT,SALEM,523247,PODILI - PIL,PODILI,IntraRegion-ROS,RATHIRA AYURVEDA PRIVATE LIMITED,Rajkumar Maiti,03/10/18,30 Jun 18,Delivered / Closed,  ,Delivered,Delivered,,,29/06/18 13:13,Self:Rajkumar Maiti: Android,29/06/18 13:13,,29/06/18 10:15,29/06/18 10:15,1,FK,15.844688,79.691245,demo,demo
921196205,239377,cod,0.5,0,1799,641021,COIMBATORE - CJT,SALEM,581316,GOKAVARAM - GVM,GOKAVARAM,IntraRegion-ROS,RATHIRA AYURVEDA PRIVATE LIMITED,Tulasidas S Kamat,03/10/18,30 Jun 18,Returned,  ,RTS - Return To Shipper,Returned,NULL,Order already cancelled,,,06/07/18 07:40,Delivered / Closed,29/06/18 07:10,05/07/18 16:32,3,FK,14.758019,74.258025,demo,demo
921196206,239378,cod,0.5,0,999,641021,COIMBATORE - CJT,SALEM,577245,BHADRAVATI - BDT,BHADRAVATI,IntraRegion-ROS,RATHIRA AYURVEDA PRIVATE LIMITED,Aruna Prakash,03/10/18,29 Jun 18,Delivered / Closed,  ,Delivered,Undelivered,,,28/06/18 19:45,Self:Aruna Prakash: Android,28/06/18 19:45,,28/06/18 15:07,28/06/18 15:07,1,FK,13.876624,75.765678,demo,demo
921196207,239379,cod,0.5,0,999,641021,COIMBATORE - CJT,SALEM,523247,PODILI - PIL,PODILI,IntraRegion-ROS,RATHIRA AYURVEDA PRIVATE LIMITED,Nazar,03/10/18,29 Jun 18,Delivered / Closed,  ,Delivered,Delivered,,,29/06/18 17:00,Self:Nazar: Android,29/06/18 17:00,,29/06/18 11:52,29/06/18 11:52,1,FK,15.891455,79.717325,demo,demo
